<?xml version="1.0" encoding="UTF-8"?>
<svg id="svg110" width="70.64mm" height="11.74mm" fill-rule="evenodd" stroke-linejoin="round" stroke-width="28.222" preserveAspectRatio="xMidYMid" version="1.2" viewBox="0 0 7064 1174" xml:space="preserve" xmlns="http://www.w3.org/2000/svg" xmlns:cc="http://creativecommons.org/ns#" xmlns:dc="http://purl.org/dc/elements/1.1/" xmlns:rdf="http://www.w3.org/1999/02/22-rdf-syntax-ns#"><metadata id="metadata114"><rdf:RDF><cc:Work rdf:about=""><dc:format>image/svg+xml</dc:format><dc:type rdf:resource="https://purl.org/dc/dcmitype/StillImage"/><dc:title/></cc:Work></rdf:RDF></metadata>
 <defs id="defs8" class="ClipPathGroup"><clipPath id="presentation_clip_path">
   <rect id="rect2" width="21590" height="27940"/>
  </clipPath></defs>
 
 
 <g id="g49" transform="translate(-7095,-3540)">
  
 </g>
 <g id="g108" class="SlideGroup" transform="translate(-7095,-3540)">
  <g id="g106">
   <g id="container-id1">
    <g id="id1" class="Slide" clip-path="url(#presentation_clip_path)">
     <g id="g102" class="Page">
      <g id="g60" class="com.sun.star.drawing.LineShape">
       <g id="id3">
        <rect id="rect51" class="BoundingBox" x="8295" y="3590" width="1124" height="1124" fill="none"/>
        <path id="path53" d="m8538 4470 576-576" fill="none" stroke="#000"/>
        <path id="path55" d="m8569 4478 14 24 9 29 4 31-4 31-9 29-14 24-17 22-22 17-25 14-29 10-30 3-31-4-28-10-26-12-21-18-18-21-13-26-9-28-4-31 3-30 10-29 14-25 17-22 22-17 24-14 29-9 31-4 31 4 28 8 25 15 22 16z"/>
        <path id="path57" d="m9418 3590-424 212 212 212z"/>
       </g>
      </g>
      <g id="g71" class="com.sun.star.drawing.LineShape">
       <g id="id4">
        <rect id="rect62" class="BoundingBox" x="9839" y="4380" width="1525" height="301" fill="none"/>
        <path id="path64" d="m10119 4530h964" fill="none" stroke="#000"/>
        <path id="path66" d="m10136 4557-8 28-14 27-19 24-24 19-27 14-28 8-27 3-27-3-29-8-27-14-23-19-19-24-14-27-9-28-2-28 2-26 9-29 14-26 19-24 23-19 27-14 29-8 27-3 27 3 28 8 27 14 24 19 19 24 14 26 8 29 3 26z"/>
        <path id="path68" d="m11066 4503 8-28 14-27 19-24 24-19 27-14 28-8 27-3 27 3 29 8 27 14 23 19 19 24 14 27 9 28 2 28-2 26-9 29-14 26-19 24-23 19-27 14-29 8-27 3-27-3-28-8-27-14-24-19-19-24-14-26-8-29-3-26z"/>
       </g>
      </g>
      <g id="g80" class="com.sun.star.drawing.LineShape">
       <g id="id5">
        <rect id="rect73" class="BoundingBox" x="7095" y="4405" width="1526" height="301" fill="none"/>
        <path id="path75" d="m7096 4555h1244" fill="none" stroke="#000"/>
        <path id="path77" d="m8323 4528 8-28 14-27 19-24 24-19 27-14 28-8 27-3 27 3 29 8 27 14 23 19 19 24 14 27 9 28 2 28-2 26-9 29-14 26-19 24-23 19-27 14-29 8-27 3-27-3-28-8-27-14-24-19-19-24-14-26-8-29-3-26z"/>
       </g>
      </g>
      <g id="g91" class="com.sun.star.drawing.LineShape">
       <g id="id6">
        <rect id="rect82" class="BoundingBox" x="11089" y="3540" width="1124" height="1124" fill="none"/>
        <path id="path84" d="m11332 4420 576-576" fill="none" stroke="#000"/>
        <path id="path86" d="m11363 4428 14 24 9 29 4 31-4 31-9 29-14 24-17 22-22 17-25 14-29 10-30 3-31-4-28-10-26-12-21-18-18-21-13-26-9-28-4-31 3-30 10-29 14-25 17-22 22-17 24-14 29-9 31-4 31 4 28 8 25 15 22 16z"/>
        <path id="path88" d="m12212 3540-424 212 212 212z"/>
       </g>
      </g>
      <g id="g100" class="com.sun.star.drawing.LineShape">
       <g id="id7">
        <rect id="rect93" class="BoundingBox" x="12633" y="4330" width="1526" height="301" fill="none"/>
        <path id="path95" d="m12913 4480h1244" fill="none" stroke="#000"/>
        <path id="path97" d="m12930 4507-8 28-14 27-19 24-24 19-27 14-28 8-27 3-27-3-29-8-27-14-23-19-19-24-14-27-9-28-2-28 2-26 9-29 14-26 19-24 23-19 27-14 29-8 27-3 27 3 28 8 27 14 24 19 19 24 14 26 8 29 3 26z"/>
       </g>
      </g>
     </g>
    </g>
   </g>
  </g>
 </g>
</svg>
