<?xml version="1.0" encoding="UTF-8"?>
<svg id="svg8" width="68.056mm" height="36.231mm" version="1.1" viewBox="0 0 68.056 36.231" xmlns="http://www.w3.org/2000/svg" xmlns:cc="http://creativecommons.org/ns#" xmlns:dc="http://purl.org/dc/elements/1.1/" xmlns:ns0="http://pav.iki.fi/software/textext/" xmlns:rdf="http://www.w3.org/1999/02/22-rdf-syntax-ns#">
 <metadata id="metadata5">
  <rdf:RDF>
   <cc:Work rdf:about="">
    <dc:format>image/svg+xml</dc:format>
    <dc:type rdf:resource="https://purl.org/dc/dcmitype/StillImage"/>
    <dc:title/>
   </cc:Work>
  </rdf:RDF>
 </metadata>
 <g id="g242" transform="translate(-82.275 -112.28)">
  <g id="g42" transform="translate(150.43 -17.387)">
   <g id="g18" fill="none" stroke="#000" stroke-linecap="round" stroke-linejoin="round" stroke-width="1.8">
    <path id="path14" d="m-40 165h-15v-30h15"/>
    <path id="path16" d="m-40 135a15 15 0 0 1 15 15 15 15 0 0 1-15 15"/>
   </g>
   <g id="g32">
    <g id="g24">
     <g id="g22">
      <path id="path20" d="m-55 140h-10" fill="none" stroke="#000" stroke-linecap="round" stroke-linejoin="round"/>
     </g>
    </g>
    <g id="g30">
     <g id="g28">
      <path id="path26" d="m-55 160h-10" fill="none" stroke="#000" stroke-linecap="round" stroke-linejoin="round"/>
     </g>
    </g>
   </g>
   <g id="g40">
    <g id="g38" transform="rotate(180 -25.5 150)" fill="none" stroke="#000" stroke-linecap="round" stroke-linejoin="round">
     <path id="path34" d="m-31 150h-5"/>
     <path id="path36" d="m-26.5 150a2 2 0 0 1-2 2 2 2 0 0 1-2-2 2 2 0 0 1 2-2 2 2 0 0 1 2 2z" stroke-width="1.2"/>
    </g>
   </g>
  </g>
  <g id="g92" transform="rotate(90 148.91 141.52)" stroke="#000">
   <g id="g83" stroke-linecap="round" stroke-linejoin="round">
    <path id="path79" d="m141 150a1 1 0 0 1-1 1 1 1 0 0 1-1-1 1 1 0 0 1 1-1 1 1 0 0 1 1 1z" stroke-width=".7"/>
    <path id="path81" d="m140 150v10" fill="none"/>
   </g>
   <g id="content" transform="matrix(0 -.88757 -.88757 0 719.15 358.64)" fill-rule="evenodd" stroke-miterlimit="10.433" stroke-width="0" ns0:preamble="/home/kjcole/.config/inkscape/extensions/textextLib/CircuitSymbolsLatexPreamble.tex" ns0:text=" $OUT$" xml:space="preserve">
<path id="path85" d="m230.81 661.57v0.14l-0.01 0.15-0.04 0.28-0.02 0.13-0.04 0.14-0.03 0.12-0.05 0.13-0.05 0.12-0.05 0.11-0.06 0.12-0.06 0.1-0.07 0.11-0.07 0.1-0.16 0.18-0.09 0.09-0.09 0.08-0.1 0.07-0.09 0.07-0.11 0.07-0.1 0.06-0.11 0.06-0.12 0.05-0.11 0.04-0.13 0.04-0.12 0.03-0.13 0.03-0.26 0.04h-0.13l-0.14 0.01-0.06-0.25c0.82 0 1.71-0.56 1.71-2.04 0-0.71-0.27-2.26-1.25-3.48-0.48-0.61-1.3-1.19-2.14-1.19-0.98 0-1.68 0.8-1.68 2.11 0 0.44 0.14 1.89 0.91 3.05 0.68 1.03 1.66 1.55 2.45 1.55l0.06 0.25c-2.15 0-4.35-2.26-4.35-4.57 0-1.65 1.12-2.65 2.55-2.65 2.12 0 4.34 2.17 4.34 4.55z"/>
<path id="path87" d="m237.64 662.98 0.02 0.07 0.01 0.04 0.01 0.03 0.02 0.04 0.01 0.03 0.02 0.04 0.01 0.03 0.12 0.18 0.03 0.02 0.03 0.03 0.06 0.04 0.04 0.02 0.03 0.02 0.04 0.02 0.05 0.02 0.04 0.02 0.05 0.01 0.05 0.02 0.05 0.01 0.18 0.03h0.07l0.07 0.01h0.07c0.05 0 0.17 0.01 0.17 0.2 0 0.01 0 0.11-0.13 0.11-0.33 0-0.68-0.03-1.02-0.03s-0.71 0.03-1.03 0.03c-0.06 0-0.18 0-0.18-0.2 0-0.11 0.1-0.11 0.18-0.11 0.56-0.01 0.67-0.22 0.67-0.43 0-0.04-0.02-0.18-0.03-0.21l-0.89-3.55c-0.34-1.33-1.49-2.2-2.49-2.2-0.68 0-1.21 0.44-1.21 1.3 0 0.02 0 0.33 0.11 0.77l0.96 3.87c0.09 0.35 0.11 0.45 0.84 0.45 0.26 0 0.34 0 0.34 0.2 0 0.11-0.11 0.11-0.14 0.11-0.28 0-1-0.03-1.28-0.03-0.29 0-0.99 0.03-1.28 0.03-0.08 0-0.19 0-0.19-0.2 0-0.11 0.09-0.11 0.28-0.11 0.02 0 0.21 0 0.38-0.02 0.18-0.02 0.27-0.03 0.27-0.16 0-0.06-0.11-0.47-0.17-0.7l-0.22-0.88c-0.09-0.38-0.57-2.26-0.61-2.45-0.07-0.28-0.07-0.43-0.07-0.58 0-1.21 0.91-1.9 1.95-1.9 1.26 0 2.5 1.12 2.83 2.43z"/>
<path id="path89" d="m243.46 663.27v0.02l0.01 0.02 0.01 0.03v0.02l0.01 0.02v0.02l0.02 0.04v0.01l0.01 0.02v0.01l0.01 0.02v0.01l0.02 0.02v0.01l0.02 0.02v0.01l0.01 0.01h0.01v0.01l0.01 0.01h0.01l0.01 0.01h0.01l0.01 0.01h0.01l0.01 0.01h0.03c0.09 0.02 0.41 0.02 0.62 0.02 1.01 0 1.46-0.04 1.46-0.81 0-0.15-0.04-0.54-0.08-0.8-0.01-0.04-0.03-0.16-0.03-0.19 0-0.06 0.03-0.13 0.12-0.13 0.11 0 0.13 0.08 0.15 0.23l0.27 1.73c0.01 0.04 0.02 0.14 0.02 0.17 0 0.11-0.1 0.11-0.27 0.11h-5.54c-0.23 0-0.24-0.01-0.31-0.2l-0.6-1.75c-0.01-0.02-0.06-0.16-0.06-0.18 0-0.05 0.05-0.11 0.12-0.11 0.1 0 0.11 0.06 0.17 0.21 0.54 1.54 0.79 1.72 2.27 1.72h0.39c0.28 0 0.28-0.04 0.28-0.12 0-0.06-0.03-0.18-0.04-0.21l-1.34-5.3c-0.09-0.37-0.12-0.48-1.18-0.48-0.36 0-0.42 0-0.42-0.19 0-0.12 0.11-0.12 0.17-0.12 0.27 0 0.54 0.03 0.82 0.03 0.27 0 0.56 0.01 0.84 0.01s0.56-0.01 0.83-0.01c0.29 0 0.59-0.03 0.87-0.03 0.1 0 0.22 0 0.22 0.2 0 0.11-0.08 0.11-0.34 0.11-0.25 0-0.38 0-0.64 0.02-0.29 0.03-0.37 0.06-0.37 0.22 0 0.01 0 0.06 0.04 0.21z"/>
</g>
  </g>
  <g id="g140" transform="rotate(-90 99.024 163.59)" stroke="#000">
   <g id="g134" stroke-linecap="round" stroke-linejoin="round">
    <path id="path130" d="m141 150a1 1 0 0 1-1 1 1 1 0 0 1-1-1 1 1 0 0 1 1-1 1 1 0 0 1 1 1z" stroke-width=".7"/>
    <path id="path132" d="m140 150v10" fill="none"/>
   </g>
   <g id="g138" transform="matrix(0 .88757 .88757 0 -439.34 -51.657)" fill="none" fill-rule="evenodd" stroke-miterlimit="10.433" ns0:preamble="/home/kjcole/.config/inkscape/extensions/textextLib/CircuitSymbolsLatexPreamble.tex" ns0:text=" $A$" xml:space="preserve">
<path id="path136" d="m225.22 658.38-0.12-0.18-0.03-0.05-0.04-0.05-0.04-0.04-0.03-0.05-0.15-0.15-0.12-0.09-0.03-0.02-0.04-0.03-0.12-0.06-0.03-0.02-0.08-0.02-0.04-0.02-0.12-0.03h-0.04l-0.04-0.01-0.16-0.02c-0.12-0.01-0.21-0.01-0.21-0.2 0-0.06 0.05-0.11 0.13-0.11 0.27 0 0.58 0.04 0.86 0.04 0.33 0 0.68-0.04 0.99-0.04 0.06 0 0.2 0 0.2 0.19 0 0.11-0.09 0.12-0.17 0.12-0.22 0.02-0.46 0.1-0.46 0.35 0 0.12 0.06 0.23 0.14 0.37l0.75 1.27h2.51l-0.03 0.31h-2.29l1.97 3.28 0.32-3.28 0.03-0.31c0.02-0.21 0.16-1.56 0.16-1.66 0-0.3-0.52-0.33-0.72-0.33-0.14 0-0.24 0-0.24-0.2 0-0.11 0.12-0.11 0.14-0.11 0.41 0 0.84 0.04 1.25 0.04 0.25 0 0.87-0.04 1.12-0.04 0.06 0 0.18 0 0.18 0.2 0 0.11-0.1 0.11-0.23 0.11-0.62 0-0.62 0.07-0.65 0.36l-0.6 6.21c-0.02 0.2-0.02 0.24-0.19 0.24-0.16 0-0.2-0.07-0.26-0.17z" fill="#000" stroke-width="0"/>
</g>
  </g>
  <g id="g192" transform="rotate(-90 109.02 173.59)" stroke="#000">
   <g id="g186" stroke-linecap="round" stroke-linejoin="round">
    <path id="path182" d="m141 150a1 1 0 0 1-1 1 1 1 0 0 1-1-1 1 1 0 0 1 1-1 1 1 0 0 1 1 1z" stroke-width=".7"/>
    <path id="path184" d="m140 150v10" fill="none"/>
   </g>
   <g id="g190" transform="matrix(0 .88757 .88757 0 -439.34 -51.843)" fill="none" fill-rule="evenodd" stroke-miterlimit="10.433" ns0:preamble="/home/kjcole/.config/inkscape/extensions/textextLib/CircuitSymbolsLatexPreamble.tex" ns0:text=" $B$" xml:space="preserve">
<path id="path188" d="m225.03 658.01-0.01-0.04-0.05-0.15-0.01-0.02-0.01-0.03-0.03-0.06-0.02-0.02-0.01-0.02-0.02-0.01-0.02-0.02-0.04-0.02-0.03-0.01-0.02-0.01-0.03-0.01-0.04-0.01h-0.01l-0.02-0.01h-0.04l-0.02-0.01h-0.06l-0.03-0.01h-0.19l-0.03-0.01h-0.17c-0.17 0-0.27 0-0.27-0.2 0-0.11 0.09-0.11 0.27-0.11h3.56c1.58 0 2.75 1.18 2.75 2.15 0 0.72-0.58 1.29-1.54 1.4 1.03 0.19 2.08 0.93 2.08 1.87 0 0.73-0.66 1.37-1.85 1.37l-0.14-0.31c0.87 0 1.08-0.58 1.08-1.02 0-0.87-0.85-1.82-2.07-1.82h-1.46l-0.06-0.22h1.89c0.96 0 1.15-0.73 1.15-1.16 0-0.98-0.89-1.95-2.07-1.95h-1.35c-0.14 0-0.16 0-0.22 0.01-0.11 0.01-0.13 0.02-0.13 0.1 0 0.03 0 0.05 0.05 0.23l0.68 2.77 0.06 0.22 0.62 2.46c0.09 0.35 0.11 0.38 0.54 0.38h1.29l0.14 0.31h-3.36c-0.18 0-0.28 0-0.28-0.2 0-0.11 0.09-0.11 0.28-0.11 0.01 0 0.2 0 0.37-0.02 0.18-0.02 0.27-0.03 0.27-0.16 0-0.04-0.01-0.07-0.04-0.19z" fill="#000" stroke-width="0"/>
</g>
  </g>
  <g id="text203" stroke-width=".26458" aria-label="NAND">
   <path id="path249" d="m103.7 135.51h-0.889l-3.2343-5.0207h-0.03387q0.01693 0.29633 0.04233 0.7366t0.0254 0.90593v3.3782h-0.70273v-6.0452h0.88053l3.2258 5.0038h0.0339q-8e-3 -0.13546-0.0254-0.4064-8e-3 -0.27093-0.0254-0.59266-8e-3 -0.32174-8e-3 -0.59267v-3.4121h0.7112z"/>
   <path id="path251" d="m109.13 135.51-0.72813-1.8711h-2.3961l-0.71967 1.8711h-0.77046l2.3622-6.0706h0.6858l2.3537 6.0706zm-0.95673-2.5485-0.67734-1.8288q-0.0254-0.0677-0.0847-0.24554-0.0593-0.1778-0.11854-0.36406-0.0508-0.19474-0.0847-0.29634-0.0593 0.26247-0.13547 0.51647-0.0762 0.24553-0.127 0.38947l-0.6858 1.8288z"/>
   <path id="path253" d="m115.54 135.51h-0.889l-3.2343-5.0207h-0.0339q0.0169 0.29633 0.0423 0.7366t0.0254 0.90593v3.3782h-0.70274v-6.0452h0.88054l3.2258 5.0038h0.0339q-8e-3 -0.13546-0.0254-0.4064-8e-3 -0.27093-0.0254-0.59266-8e-3 -0.32174-8e-3 -0.59267v-3.4121h0.7112z"/>
   <path id="path255" d="m122.03 132.43q0 1.5325-0.8382 2.3114-0.82974 0.77046-2.3199 0.77046h-1.6849v-6.0452h1.8627q0.9144 0 1.5833 0.33867 0.66886 0.33867 1.0329 0.99907 0.36407 0.65193 0.36407 1.6256zm-0.80434 0.0254q0-1.2107-0.60113-1.7695-0.59267-0.56726-1.6849-0.56726h-0.9906v4.7413h0.82127q2.4553 0 2.4553-2.4045z"/>
  </g>
 </g>
</svg>
