<?xml version='1.0' encoding='UTF-8'?>
<!-- This file was generated by dvisvgm 2.13.1 -->
<svg version='1.1' xmlns='http://www.w3.org/2000/svg' xmlns:xlink='http://www.w3.org/1999/xlink' width='347.518329pt' height='52.780209pt' viewBox='20.085279 -57.569401 347.518329 52.780209'>
<defs>
<path id='g1-61' d='M5.822495-3.347427V-3.915476H.628911V-3.347427H5.822495ZM5.822495-1.288252V-1.856301H.628911V-1.288252H5.822495Z'/>
<path id='g1-129' d='M4.838554-3.347427C4.838554-5.42689 3.905332-6.857154 2.576505-6.857154C.933222-6.857154 .233306-5.203728 .233306-3.40829C.233306-1.74472 .79121 .142012 2.53593 .142012C4.1995 .142012 4.838554-1.602708 4.838554-3.347427ZM4.0372-3.347427C4.0372-1.967882 3.621308-.578192 2.53593-.578192C1.38969-.578192 1.034659-2.079463 1.034659-3.388002C1.034659-4.828411 1.491127-6.13695 2.556217-6.13695C3.438721-6.13695 4.0372-5.000854 4.0372-3.347427Z'/>
<path id='g1-130' d='M3.063403 0V-6.81658L2.921391-6.867298L1.095522-5.934076V-5.193584C1.460696-5.376171 1.886732-5.609477 2.262049-5.78192V0H3.063403Z'/>
<path id='g1-131' d='M4.757405-.720204H1.795438L3.418434-2.738804C4.270506-3.803895 4.524099-4.179212 4.524099-4.980566C4.524099-5.994938 3.732889-6.857154 2.525786-6.857154C1.470839-6.857154 .588336-6.035513 .375318-4.828411L1.105665-4.655967C1.247678-5.670339 1.886732-6.13695 2.45478-6.13695C3.225703-6.13695 3.722745-5.660196 3.722745-4.818267C3.722745-4.260362 3.316996-3.793751 2.698229-3.063403L2.130181-2.37363V-2.383774L.35503-.213018V0H4.463237L4.757405-.720204Z'/>
<path id='g1-132' d='M1.14624-4.99071C1.399833-5.792064 1.93745-6.13695 2.434493-6.13695S3.357571-5.78192 3.357571-5.193584C3.357571-4.493668 2.657655-3.996626 2.089606-3.996626L1.602708-3.479296V-3.266278H2.251906C3.134409-3.144553 3.672027-2.637367 3.672027-1.93745C3.672027-1.551989 3.469152-1.166528 3.205415-.943366C2.911248-.689773 2.485211-.578192 2.028744-.578192C1.592564-.578192 1.14624-.750635 .79121-1.136097L.314455-.568048C.841929 .010144 1.450552 .142012 2.079463 .142012C2.738804 .142012 3.377859-.050719 3.834326-.507186C4.229931-.902791 4.47338-1.511414 4.47338-2.130181C4.47338-2.698229 4.098063-3.459008 3.286565-3.753176C3.915476-4.189356 4.158925-4.777692 4.158925-5.26459C4.158925-6.177525 3.418434-6.857154 2.464924-6.857154C1.399833-6.857154 .71006-6.187669 .426036-5.163153L1.14624-4.99071Z'/>
<path id='g1-133' d='M4.960279-2.393918H3.783607V-6.857154H3.276421L.111581-2.363487V-1.673714H2.982254V0H3.783607V-1.673714H4.625536L4.960279-2.393918ZM2.982254-2.393918H1.014372L2.982254-5.173297V-2.393918Z'/>
<path id='g1-135' d='M4.544386-6.776005L4.534243-6.938304C3.093834-6.796292 2.414205-6.644136 1.450552-5.70077C.760779-5.021141 .324599-3.814039 .324599-2.677942C.324599-1.217246 .963653 .142012 2.606936 .142012C3.874901 .142012 4.767548-.943366 4.767548-2.231618C4.767548-3.560446 3.732889-4.371943 2.627223-4.371943C2.120037-4.371943 1.653426-4.240075 1.237534-3.935763C1.714289-5.376171 2.850385-6.126807 4.361799-6.238388L4.544386-6.776005ZM3.956051-2.09975C3.956051-1.217246 3.377859-.578192 2.637367-.578192C1.694001-.578192 1.136097-1.359258 1.136097-2.434493C1.267965-3.266278 1.886732-3.651739 2.546074-3.651739C3.256134-3.651739 3.956051-3.124266 3.956051-2.09975Z'/>
<path id='g1-138' d='M.557905 .020287L.578192 .213018C1.978025 .071006 2.647511-.091293 3.60102-1.024516C4.290793-1.694001 4.726973-2.911248 4.726973-4.0372C4.726973-5.50804 4.098063-6.857154 2.45478-6.857154C1.176671-6.857154 .284024-5.771776 .284024-4.483524C.284024-3.154697 1.318684-2.343199 2.424349-2.343199C2.921391-2.343199 3.398146-2.475068 3.814039-2.789523C3.337284-1.338971 2.201187-.588336 .689773-.476755L.557905 .020287ZM3.915476-4.28065C3.783607-3.448865 3.164841-3.073547 2.505499-3.073547C1.795438-3.073547 1.095522-3.590877 1.095522-4.625536C1.095522-5.50804 1.683857-6.13695 2.424349-6.13695C3.347427-6.13695 3.905332-5.34574 3.915476-4.28065Z'/>
<path id='g11-2' d='M8.059441-.486346L4.960725-3.571166L8.059441-6.669882L7.503617-7.225706L4.418797-4.12699L1.333976-7.225706L.778153-6.669882L3.862973-3.571166L.778153-.486346L1.333976 .069478L4.418797-3.029238L7.503617 .069478L8.059441-.486346Z'/>
<path id='g11-184' d='M3.460001-3.974138H.416868V-3.057029H3.460001V0H4.37711V-3.057029H7.420244V-3.974138H4.37711V-7.031167H3.460001V-3.974138Z'/>
<path id='g11-185' d='M4.099198-9.963136C2.084338-8.656951 .666988-6.405866 .666988-3.571166C.666988-.986587 2.139921 1.625784 4.057512 2.806909L4.224259 2.584579C2.390041 1.139438 1.862009-.541928 1.862009-3.612853C1.862009-6.697673 2.431728-8.295666 4.224259-9.740807L4.099198-9.963136Z'/>
<path id='g11-186' d='M.528032-9.963136L.402972-9.740807C2.195503-8.295666 2.765222-6.697673 2.765222-3.612853C2.765222-.541928 2.23719 1.139438 .402972 2.584579L.569719 2.806909C2.48731 1.625784 3.960242-.986587 3.960242-3.571166C3.960242-6.405866 2.542893-8.656951 .528032-9.963136Z'/>
<path id='g11-187' d='M4.154781 2.334459H2.95976C2.501206 2.334459 2.278876 2.098234 2.278876 1.611888V-8.865385C2.278876-9.296148 2.459519-9.476791 2.904178-9.476791H4.154781V-9.82418H1.222812V2.681848H4.154781V2.334459Z'/>
<path id='g11-188' d='M.47245 2.334459V2.681848H3.404419V-9.82418H.47245V-9.476791H1.667471C2.126025-9.476791 2.348354-9.240566 2.348354-8.75422V1.723053C2.348354 2.153816 2.153816 2.334459 1.723053 2.334459H.47245Z'/>
<use id='g6-61' xlink:href='#g1-61' transform='scale(1.369871)'/>
<use id='g6-129' xlink:href='#g1-129' transform='scale(1.369871)'/>
<use id='g6-130' xlink:href='#g1-130' transform='scale(1.369871)'/>
<use id='g6-131' xlink:href='#g1-131' transform='scale(1.369871)'/>
<use id='g6-135' xlink:href='#g1-135' transform='scale(1.369871)'/>
<use id='g6-138' xlink:href='#g1-138' transform='scale(1.369871)'/>
</defs>
<g id='page1'>
<use x='20.085279' y='-44.931559' xlink:href='#g6-130'/>
<use x='27.059127' y='-44.931559' xlink:href='#g6-129'/>
<use x='34.032975' y='-44.931559' xlink:href='#g6-129'/>
<use x='41.006823' y='-44.931559' xlink:href='#g6-130'/>
<use x='47.980671' y='-44.931559' xlink:href='#g6-130'/>
<use x='58.828846' y='-44.931559' xlink:href='#g6-61'/>
<use x='72.41077' y='-44.931559' xlink:href='#g11-187'/>
<use x='78.171143' y='-44.931559' xlink:href='#g11-185'/>
<use x='83.373634' y='-44.931559' xlink:href='#g6-130'/>
<use x='93.446943' y='-44.931559' xlink:href='#g11-2'/>
<use x='105.417134' y='-44.931559' xlink:href='#g6-131'/>
<use x='112.390982' y='-50.691955' xlink:href='#g1-133'/>
<use x='117.979994' y='-44.931559' xlink:href='#g11-186'/>
<use x='126.421401' y='-44.931559' xlink:href='#g11-184'/>
<use x='138.084752' y='-44.931559' xlink:href='#g11-185'/>
<use x='143.287243' y='-44.931559' xlink:href='#g6-129'/>
<use x='153.360552' y='-44.931559' xlink:href='#g11-2'/>
<use x='165.330743' y='-44.931559' xlink:href='#g6-131'/>
<use x='172.304591' y='-50.691955' xlink:href='#g1-132'/>
<use x='177.893602' y='-44.931559' xlink:href='#g11-186'/>
<use x='186.33501' y='-44.931559' xlink:href='#g11-184'/>
<use x='197.99836' y='-44.931559' xlink:href='#g11-185'/>
<use x='203.200851' y='-44.931559' xlink:href='#g6-129'/>
<use x='213.27416' y='-44.931559' xlink:href='#g11-2'/>
<use x='225.244352' y='-44.931559' xlink:href='#g6-131'/>
<use x='232.2182' y='-50.691955' xlink:href='#g1-131'/>
<use x='237.807211' y='-44.931559' xlink:href='#g11-186'/>
<use x='246.248618' y='-44.931559' xlink:href='#g11-184'/>
<use x='257.911969' y='-44.931559' xlink:href='#g11-185'/>
<use x='263.11446' y='-44.931559' xlink:href='#g6-130'/>
<use x='273.187769' y='-44.931559' xlink:href='#g11-2'/>
<use x='285.15796' y='-44.931559' xlink:href='#g6-131'/>
<use x='292.131808' y='-50.691955' xlink:href='#g1-130'/>
<use x='297.72082' y='-44.931559' xlink:href='#g11-186'/>
<use x='306.162227' y='-44.931559' xlink:href='#g11-184'/>
<use x='317.825578' y='-44.931559' xlink:href='#g11-185'/>
<use x='323.028068' y='-44.931559' xlink:href='#g6-130'/>
<use x='333.101378' y='-44.931559' xlink:href='#g11-2'/>
<use x='345.071569' y='-44.931559' xlink:href='#g6-131'/>
<use x='352.045417' y='-50.691955' xlink:href='#g1-129'/>
<use x='357.634428' y='-44.931559' xlink:href='#g11-186'/>
<use x='362.976374' y='-44.931559' xlink:href='#g11-188'/>
<use x='105.051415' y='-25.006278' xlink:href='#g6-61'/>
<use x='118.63334' y='-25.006278' xlink:href='#g11-187'/>
<use x='124.393713' y='-25.006278' xlink:href='#g11-185'/>
<use x='129.596204' y='-25.006278' xlink:href='#g6-130'/>
<use x='136.570052' y='-25.006278' xlink:href='#g6-135'/>
<use x='143.5439' y='-25.006278' xlink:href='#g11-186'/>
<use x='151.985307' y='-25.006278' xlink:href='#g11-184'/>
<use x='163.648658' y='-25.006278' xlink:href='#g11-185'/>
<use x='168.851149' y='-25.006278' xlink:href='#g6-129'/>
<use x='175.824997' y='-25.006278' xlink:href='#g11-186'/>
<use x='184.266404' y='-25.006278' xlink:href='#g11-184'/>
<use x='195.929755' y='-25.006278' xlink:href='#g11-185'/>
<use x='201.132246' y='-25.006278' xlink:href='#g6-129'/>
<use x='208.106094' y='-25.006278' xlink:href='#g11-186'/>
<use x='216.547501' y='-25.006278' xlink:href='#g11-184'/>
<use x='228.210852' y='-25.006278' xlink:href='#g11-185'/>
<use x='233.413343' y='-25.006278' xlink:href='#g6-131'/>
<use x='240.387191' y='-25.006278' xlink:href='#g11-186'/>
<use x='248.828598' y='-25.006278' xlink:href='#g11-184'/>
<use x='260.491949' y='-25.006278' xlink:href='#g11-185'/>
<use x='265.69444' y='-25.006278' xlink:href='#g6-130'/>
<use x='272.668288' y='-25.006278' xlink:href='#g11-186'/>
<use x='278.010234' y='-25.006278' xlink:href='#g11-188'/>
<use x='180.925108' y='-5.080998' xlink:href='#g6-61'/>
<use x='193.670164' y='-5.080998' xlink:href='#g6-130'/>
<use x='200.644012' y='-5.080998' xlink:href='#g6-138'/>
</g>
</svg>
<!-- DEPTH=0 -->